{
  "project_info": {
    "project_number": "843690442663",
    "firebase_url": "https://ridehubuserlatest.firebaseio.com",
    "project_id": "ridehubuserlatest",
    "storage_bucket": "ridehubuserlatest.appspot.com"
  },
  "client": [
    {
      "client_info": {
        "mobilesdk_app_id": "1:843690442663:android:839ace44a6c05682e4c082",
        "android_client_info": {
          "package_name": "com.project.app.ridehubuser"
        }
      },
      "oauth_client": [
        {
          "client_id": "843690442663-sp3e5rq2es1fkn6v03nr57okfsgd061f.apps.googleusercontent.com",
          "client_type": 1,
          "android_info": {
            "package_name": "com.project.app.ridehubuser",
            "certificate_hash": "7369bbc5a9ab0c8554046fd96209b99a7b00efee"
          }
        },
        {
          "client_id": "843690442663-atp9ubh25nmvrpejged8jqe2kcovfeov.apps.googleusercontent.com",
          "client_type": 3
        }
      ],
      "api_key": [
        {
          "current_key": "AIzaSyAeB1Aq3DYX2TDVmS852x6jztZu2FWDMFU"
        }
      ],
      "services": {
        "appinvite_service": {
          "other_platform_oauth_client": [
            {
              "client_id": "843690442663-atp9ubh25nmvrpejged8jqe2kcovfeov.apps.googleusercontent.com",
              "client_type": 3
            }
          ]
        }
      }
    }
  ],
  "configuration_version": "1"
}